Portfolio 6 - March Madness Regression
…
mm23 <- read_csv("docs/2023marchmadness.csv", show_col_types = FALSE)

mm23<-mm23 %>%
  mutate(round_lost = 2.8 + (.62*x_runner) + (.65*x_won) - (.025*overall_rank) - (.045*diff_pts))

mm23 %>%                                      # Top N highest values by group
  arrange(desc(round_lost)) %>%
  slice(1:64)

## # A tibble: 64 × 17
##    school  region brack…¹ overa…² pct_w…³ league stren…⁴ x_swe…⁵ x_eli…⁶ x_fin…⁷
##    <chr>   <chr>    <dbl>   <dbl>   <dbl> <chr>    <dbl>   <dbl>   <dbl>   <dbl>
##  1 Kansas  west         1       2    79.4 Big12        2      14      11       6
##  2 Duke    east         5      10    76.5 ACC         15      16       8       5
##  3 Uconn   west         4       6    75.8 BigE        68       7       6       4
##  4 Kentuc… east         6      12    65.6 SEC         25      12       9       4
##  5 Gonzaga west         3      11    84.8 WCC         16      11       4       2
##  6 Michig… east         7      35    61.3 Big10       18      12       9       7
##  7 Arizona south        2       3    82.4 Pac12       36      11       6       1
##  8 Indiana midwe…       4      16    66.7 Big10       19       4       1       1
##  9 UCLA    west         2       5    85.3 Pac12       37      11       4       4
## 10 Baylor  south        3      19    68.8 Big12        5       5       3       1
## # … with 54 more rows, 7 more variables: x_runner <dbl>, x_won <dbl>,
## #   ft_pct <dbl>, pts_earned <dbl>, pts_allowed <dbl>, diff_pts <dbl>,
## #   round_lost <dbl>, and abbreviated variable names ¹​bracket_rank,
## #   ²​overall_rank, ³​pct_wins, ⁴​strength_schedule, ⁵​x_sweet16, ⁶​x_elite8,
## #   ⁷​x_final4
…
mm23<-mm23 %>%
  mutate(round_lost2 = .269 + (.06*ft_pct) - (.06*pts_earned) + (.05*pts_allowed) - (.09*overall_rank)+ (.16*bracket_rank))

mm23 %>%                                      # Top N highest values by group
  arrange(desc(round_lost2)) %>%
  slice(1:64)

## # A tibble: 64 × 18
##    school  region brack…¹ overa…² pct_w…³ league stren…⁴ x_swe…⁵ x_eli…⁶ x_fin…⁷
##    <chr>   <chr>    <dbl>   <dbl>   <dbl> <chr>    <dbl>   <dbl>   <dbl>   <dbl>
##  1 Duke    east         5      10    76.5 ACC         15      16       8       5
##  2 Kansas  west         1       2    79.4 Big12        2      14      11       6
##  3 Uconn   west         4       6    75.8 BigE        68       7       6       4
##  4 Creigh… south        6      15    63.6 BigE        32       1       0       0
##  5 Kentuc… east         6      12    65.6 SEC         25      12       9       4
##  6 Arizona south        2       3    82.4 Pac12       36      11       6       1
##  7 Texas   midwe…       2       7    76.5 Big12        9       5       3       1
##  8 UCLA    west         2       5    85.3 Pac12       37      11       4       4
##  9 Houston midwe…       1       1    91.2 Am          38       3       2       1
## 10 Memphis east         8      21    76.5 Am          33       4       3       1
## # … with 54 more rows, 8 more variables: x_runner <dbl>, x_won <dbl>,
## #   ft_pct <dbl>, pts_earned <dbl>, pts_allowed <dbl>, diff_pts <dbl>,
## #   round_lost <dbl>, round_lost2 <dbl>, and abbreviated variable names
## #   ¹​bracket_rank, ²​overall_rank, ³​pct_wins, ⁴​strength_schedule, ⁵​x_sweet16,
## #   ⁶​x_elite8, ⁷​x_final4
…
mm23<-mm23 %>%
  mutate(round_lost3 = -2.145+ (.022*strength_schedule) +(.81*overall_rank)-(.43*ft_pct)+(.5*pts_earned)+(.13*pts_allowed)- (1.05*bracket_rank))

mm23 %>%                                      # Top N highest values by group
  arrange((round_lost3)) %>%
  slice(1:64)

## # A tibble: 64 × 19
##    school  region brack…¹ overa…² pct_w…³ league stren…⁴ x_swe…⁵ x_eli…⁶ x_fin…⁷
##    <chr>   <chr>    <dbl>   <dbl>   <dbl> <chr>    <dbl>   <dbl>   <dbl>   <dbl>
##  1 Houston midwe…       1       1    91.2 Am          38       3       2       1
##  2 Duke    east         5      10    76.5 ACC         15      16       8       5
##  3 Kansas  west         1       2    79.4 Big12        2      14      11       6
##  4 UCLA    west         2       5    85.3 Pac12       37      11       4       4
##  5 Uconn   west         4       6    75.8 BigE        68       7       6       4
##  6 Texas   midwe…       2       7    76.5 Big12        9       5       3       1
##  7 Purdue  east         1       9    85.3 Big10       27       7       2       0
##  8 Kentuc… east         6      12    65.6 SEC         25      12       9       4
##  9 Creigh… south        6      15    63.6 BigE        32       1       0       0
## 10 Alabama south        1       4    85.3 SEC          1       2       1       0
## # … with 54 more rows, 9 more variables: x_runner <dbl>, x_won <dbl>,
## #   ft_pct <dbl>, pts_earned <dbl>, pts_allowed <dbl>, diff_pts <dbl>,
## #   round_lost <dbl>, round_lost2 <dbl>, round_lost3 <dbl>, and abbreviated
## #   variable names ¹​bracket_rank, ²​overall_rank, ³​pct_wins, ⁴​strength_schedule,
## #   ⁵​x_sweet16, ⁶​x_elite8, ⁷​x_final4
…
mm23<-mm23 %>%
  mutate(round_lost4 = 18.49 + (.033*strength_schedule)- (4.96*x_runner) - (2.17*x_won) + (.39*overall_rank))

mm23 %>%                                      # Top N highest values by group
  arrange((round_lost4)) %>%
  slice(1:64)

## # A tibble: 64 × 20
##    school  region brack…¹ overa…² pct_w…³ league stren…⁴ x_swe…⁵ x_eli…⁶ x_fin…⁷
##    <chr>   <chr>    <dbl>   <dbl>   <dbl> <chr>    <dbl>   <dbl>   <dbl>   <dbl>
##  1 Kansas  west         1       2    79.4 Big12        2      14      11       6
##  2 Gonzaga west         3      11    84.8 WCC         16      11       4       2
##  3 Arizona south        2       3    82.4 Pac12       36      11       6       1
##  4 Duke    east         5      10    76.5 ACC         15      16       8       5
##  5 Uconn   west         4       6    75.8 BigE        68       7       6       4
##  6 UCLA    west         2       5    85.3 Pac12       37      11       4       4
##  7 Kentuc… east         6      12    65.6 SEC         25      12       9       4
##  8 Alabama south        1       4    85.3 SEC          1       2       1       0
##  9 Houston midwe…       1       1    91.2 Am          38       3       2       1
## 10 Indiana midwe…       4      16    66.7 Big10       19       4       1       1
## # … with 54 more rows, 10 more variables: x_runner <dbl>, x_won <dbl>,
## #   ft_pct <dbl>, pts_earned <dbl>, pts_allowed <dbl>, diff_pts <dbl>,
## #   round_lost <dbl>, round_lost2 <dbl>, round_lost3 <dbl>, round_lost4 <dbl>,
## #   and abbreviated variable names ¹​bracket_rank, ²​overall_rank, ³​pct_wins,
## #   ⁴​strength_schedule, ⁵​x_sweet16, ⁶​x_elite8, ⁷​x_final4
