Portfolio 1 - Distractor Suppression Pilot Study
…
space <- pilot %>%
  group_by(ID, relative_hp_dist) %>%
  filter(acc==100) %>%
  summarize(rts = mean(RT),
            )

## `summarise()` has grouped output by 'ID'. You can override using the `.groups`
## argument.

space

## # A tibble: 105 × 3
## # Groups:   ID [21]
##       ID relative_hp_dist   rts
##    <dbl> <chr>            <dbl>
##  1    11 dist_0           1277.
##  2    11 dist_1           1324.
##  3    11 dist_2           1336.
##  4    11 dist_3           1230.
##  5    11 no_dist          1098.
##  6    12 dist_0            816.
##  7    12 dist_1            879.
##  8    12 dist_2            865.
##  9    12 dist_3            882.
## 10    12 no_dist           750.
## # … with 95 more rows
…
