Portfolio 2
…
space2<- df2 %>%
  group_by(ID, relative_target) %>%
  summarize(rts = mean(RT)
            )

## `summarise()` has grouped output by 'ID'. You can override using the `.groups`
## argument.

space2

## # A tibble: 84 × 3
## # Groups:   ID [21]
##       ID relative_target   rts
##    <dbl> <chr>           <dbl>
##  1    11 high_prob       1195.
##  2    11 lp_1            1177.
##  3    11 lp_2            1180.
##  4    11 lp_3            1166.
##  5    12 high_prob        875.
##  6    12 lp_1             811.
##  7    12 lp_2             764.
##  8    12 lp_3             755.
##  9    13 high_prob        789.
## 10    13 lp_1             814.
## # … with 74 more rows
…
space <- trimmed %>%
  subset(relative_hp_dist=="no_dist")%>%
  group_by(ID, relative_target) %>%
  summarize(rts = mean(RT),
            )

## `summarise()` has grouped output by 'ID'. You can override using the `.groups`
## argument.

space

## # A tibble: 84 × 3
## # Groups:   ID [21]
##       ID relative_target   rts
##    <dbl> <chr>           <dbl>
##  1    11 high_prob       1088.
##  2    11 lp_1            1083.
##  3    11 lp_2            1056.
##  4    11 lp_3            1102.
##  5    12 high_prob        801.
##  6    12 lp_1             749.
##  7    12 lp_2             701.
##  8    12 lp_3             708.
##  9    13 high_prob        748.
## 10    13 lp_1             756.
## # … with 74 more rows
…
pilot_dist <- pilot %>%
  group_by(ID, relative_hp_dist) %>%
  summarize(accuracy = mean(acc)
            )

## `summarise()` has grouped output by 'ID'. You can override using the `.groups`
## argument.

pilot_dist

## # A tibble: 105 × 3
## # Groups:   ID [21]
##       ID relative_hp_dist accuracy
##    <dbl> <chr>               <dbl>
##  1    11 dist_0               94.4
##  2    11 dist_1               93.8
##  3    11 dist_2               90.6
##  4    11 dist_3               93.8
##  5    11 no_dist              97.9
##  6    12 dist_0               98.1
##  7    12 dist_1               93.8
##  8    12 dist_2               96.9
##  9    12 dist_3              100  
## 10    12 no_dist              99.6
## # … with 95 more rows

pilot_targ <- pilot %>%
  subset(relative_hp_dist=="no_dist")%>%
  group_by(ID, relative_target) %>%
  summarize(accuracy = mean(acc)
            )

## `summarise()` has grouped output by 'ID'. You can override using the `.groups`
## argument.

pilot_targ

## # A tibble: 84 × 3
## # Groups:   ID [21]
##       ID relative_target accuracy
##    <dbl> <chr>              <dbl>
##  1    11 high_prob           97.5
##  2    11 lp_1                97.5
##  3    11 lp_2                97.5
##  4    11 lp_3               100  
##  5    12 high_prob          100  
##  6    12 lp_1               100  
##  7    12 lp_2                98.8
##  8    12 lp_3               100  
##  9    13 high_prob          100  
## 10    13 lp_1               100  
## # … with 74 more rows
…
