Portfolio 7
…
space_block <- space_block %>%
  mutate(low_prob = rowMeans(select(space_block, c(lp_1,lp_2,lp_3)),na.rm=TRUE)) %>%
  mutate(difference = (low_prob-high_prob))

Create a new df for the suppression effect for each ppt.

supp <- space_block %>%
  group_by(id)%>%
  summarize(effect = mean(difference, na.rm = TRUE))

supp

## # A tibble: 33 × 2
##       id effect
##    <dbl>  <dbl>
##  1    14   95.2
##  2    15   99.7
##  3    16   65.3
##  4    18   51.7
##  5    19   50.3
##  6    20   43.6
##  7    21   83.5
##  8    22  123. 
##  9    23  -84.9
## 10    24  -76.6
## # … with 23 more rows
…
