Portfolio 8
…
Create a new data frame with the average RT for each relative
distractor location per participant, so we can do a repeated measures
ANOVA – eventually – maybe.

space <- all_data %>%
  group_by(age, id, relative_hp_dist) %>%
  summarize(rts = mean(rt)
            )

## `summarise()` has grouped output by 'age', 'id'. You can override using the
## `.groups` argument.

space

## # A tibble: 165 × 4
## # Groups:   age, id [33]
##    age      id relative_hp_dist   rts
##    <chr> <dbl> <chr>            <dbl>
##  1 adult    14 absent            775.
##  2 adult    14 high_prob         858.
##  3 adult    14 lp_1             1089.
##  4 adult    14 lp_2              886.
##  5 adult    14 lp_3              897.
##  6 adult    15 absent            807.
##  7 adult    15 high_prob         982.
##  8 adult    15 lp_1             1082.
##  9 adult    15 lp_2              942.
## 10 adult    15 lp_3             1112.
## # … with 155 more rows
…
