Portfolio 10
…
space <- all_data %>%
  subset(relative_hp_dist=="absent")%>%
  group_by(age, id, relative_target) %>%
  summarize(rts = mean(rt)
            )

## `summarise()` has grouped output by 'age', 'id'. You can override using the
## `.groups` argument.

space

## # A tibble: 132 × 4
## # Groups:   age, id [33]
##    age      id relative_target   rts
##    <chr> <dbl> <chr>           <dbl>
##  1 adult    14 high_prob        836.
##  2 adult    14 lp_1             764.
##  3 adult    14 lp_2             719.
##  4 adult    14 lp_3             799.
##  5 adult    15 high_prob        827.
##  6 adult    15 lp_1             808.
##  7 adult    15 lp_2             741.
##  8 adult    15 lp_3             806.
##  9 adult    16 high_prob       1013.
## 10 adult    16 lp_1            1098.
## # … with 122 more rows
…
